amqp==5.1.1
anyjson==0.3.3
asgiref==3.5.2
async-timeout==4.0.2
billiard==3.6.4.0
celery==5.2.7
certifi==2022.9.24
charset-normalizer==2.1.1
click==8.1.3
click-didyoumean==0.3.0
click-plugins==1.1.1
click-repl==0.2.0
crispy-bootstrap5==0.7
Deprecated==1.2.13
Django==4.1.2
django-crispy-forms==1.14.0
django-environ==0.9.0
gunicorn==20.1.0
h11==0.14.0
idna==3.4
ifaddr==0.2.0
kombu==5.2.4
packaging==21.3
prompt-toolkit==3.0.31
pyparsing==3.0.9
pytz==2022.4
redis==4.3.4
requests==2.28.1
six==1.16.0
sqlparse==0.4.3
urllib3==1.26.12
uvicorn==0.18.3
vine==5.0.0
wcwidth==0.2.5
wrapt==1.14.1
zeroconf==0.36.3
